name	ins_url
阿部力	https://www.instagram.com/tsuyoshi213
石原里美	
板野友美	https://www.instagram.com/tomo_coco73
石田晴香	
岩田华怜	https://www.instagram.com/karen0513_
及川光博	
大岛麻衣	https://www.instagram.com/maimai911
河西智美	https://www.instagram.com/chiyu3u
铃木亮平	
高畑充希	https://www.instagram.com/mitsuki_takahata
妻夫木聪	
深田恭子	https://www.instagram.com/kyokofukada_official
藤原龙也	
古川雄辉	https://www.instagram.com/yukifurukawasg
松山研一	
山内铃兰	https://www.instagram.com/xxsuzuranxx
吉田钢太郎	
绫濑遥	
池松壮亮	https://www.instagram.com/sosuke_ikematsu
石桥杏奈	https://www.instagram.com/annaisbs_92
佐野ひなこ	https://www.instagram.com/hinako_sano
	
黑川智花	
天海佑希	
成海璃子	
荣仓奈奈	https://www.instagram.com/nana_eikura
川口春奈	
福原遥	
竹野内丰	
反町隆史	
速水重道	
龙星凉	
福士苍汰	https://www.instagram.com/sotafukushi
spyair	
家入レオ	https://www.instagram.com/leoieiri