name	twitter_url
秋元才加	https://twitter.com/akimotooo726
光宗薫	https://twitter.com/mtmnkor
宫泽佐江	https://twitter.com/oyasuminaSAE_m
益若翼	https://twitter.com/tsubasamasuwaka
松田翔太	https://twitter.com/shota_matsuda
水原希子	https://twitter.com/kikoxxx
水树奈奈	https://twitter.com/NM_NANAPARTY
西野加奈	https://twitter.com/kanayanofficial
kalafina	https://twitter.com/Kalafina_Staff
清水翔太	https://twitter.com/sshota0227
桥本环奈	 https://twitter.com/RevfromDVLkanna
